<svg width="86" height="86" viewBox="0 0 86 86" fill="none" xmlns="http://www.w3.org/2000/svg">
<path d="M70 1H16C7.71573 1 1 7.71573 1 16V70C1 78.2843 7.71573 85 16 85H70C78.2843 85 85 78.2843 85 70V16C85 7.71573 78.2843 1 70 1Z" stroke="#FEA000" stroke-width="2"/>
<path d="M66.1342 41.8063C65.8812 41.9063 57.7652 45.2413 53.5812 51.6783C49.3252 58.2193 47.0402 62.2783 41.4692 62.4693C38.3032 62.5853 31.9282 59.4353 32.0492 53.3793C32.1152 50.1093 49.1882 48.7323 54.2862 32.4583C59.7922 14.8893 30.6122 7.20927 26.1592 50.6263C26.1592 50.6263 9.93416 56.8693 8.03516 64.2633C8.03516 64.2633 21.7992 55.9553 26.2032 55.3003C26.2032 55.3003 30.8032 68.2273 41.3162 67.4673C50.4392 66.7843 49.3382 60.9673 54.3592 57.6283C59.3802 54.2893 59.3142 54.8423 60.5752 52.3283C63.0472 47.4173 57.7622 48.8153 57.7622 48.8153C57.7622 48.8153 65.0822 44.9443 66.1342 41.8063ZM47.2882 24.3593C59.2242 33.3113 31.4882 46.9323 31.4882 46.9323C31.4882 46.9323 38.2592 17.5933 47.2882 24.3593Z" fill="white"/>
<path d="M71.8236 39.8227L70.8431 40.6374C69.7389 41.555 69.5876 43.194 70.5051 44.2982L71.3199 45.2787C72.2374 46.3829 73.8764 46.5343 74.9807 45.6167L75.9612 44.802C77.0654 43.8844 77.2167 42.2454 76.2992 41.1412L75.4844 40.1607C74.5669 39.0565 72.9279 38.9051 71.8236 39.8227Z" fill="white"/>
</svg>
